%YAML 1.1
%TAG !u! tag:unity3d.com,2011:
--- !u!114 &11400000
MonoBehaviour:
  m_ObjectHideFlags: 0
  m_CorrespondingSourceObject: {fileID: 0}
  m_PrefabInstance: {fileID: 0}
  m_PrefabAsset: {fileID: 0}
  m_GameObject: {fileID: 0}
  m_Enabled: 1
  m_EditorHideFlags: 0
  m_Script: {fileID: 11500000, guid: 25b1d1a1afd7ae343b2943854047a6e0, type: 3}
  m_Name: PhaseData
  m_EditorClassIdentifier: 
  phaseMain:
  - mapId: 1
    phase1:
    - levelDiff: 0
    phase2: []
    itemReward: {fileID: 0}
    moneyLevel: 0
    moneyLevelReward: 0
  - mapId: 2
    phase1:
    - levelDiff: 1
    phase2: []
    itemReward: {fileID: 0}
    moneyLevel: 0
    moneyLevelReward: 0
  - mapId: 3
    phase1:
    - levelDiff: 0
    phase2:
    - levelDiff: 1
    itemReward: {fileID: 0}
    moneyLevel: 0
    moneyLevelReward: 0
  - mapId: 4
    phase1:
    - levelDiff: 0
    phase2:
    - levelDiff: 2
    itemReward: {fileID: 0}
    moneyLevel: 0
    moneyLevelReward: 0
  - mapId: 5
    phase1:
    - levelDiff: 1
    phase2:
    - levelDiff: 2
    itemReward: {fileID: 0}
    moneyLevel: 0
    moneyLevelReward: 0
  - mapId: 6
    phase1:
    - levelDiff: 1
    phase2:
    - levelDiff: 2
    itemReward: {fileID: 0}
    moneyLevel: 0
    moneyLevelReward: 0
  - mapId: 7
    phase1:
    - levelDiff: 1
    phase2:
    - levelDiff: 2
    itemReward: {fileID: 0}
    moneyLevel: 0
    moneyLevelReward: 0
  - mapId: 8
    phase1:
    - levelDiff: 3
    phase2:
    - levelDiff: 5
    itemReward: {fileID: 0}
    moneyLevel: 0
    moneyLevelReward: 0
  - mapId: 9
    phase1:
    - levelDiff: 3
    phase2:
    - levelDiff: 6
    itemReward: {fileID: 0}
    moneyLevel: 0
    moneyLevelReward: 0
  - mapId: 10
    phase1:
    - levelDiff: 3
    phase2:
    - levelDiff: 4
    itemReward: {fileID: 0}
    moneyLevel: 0
    moneyLevelReward: 0
  - mapId: 11
    phase1:
    - levelDiff: 3
    phase2:
    - levelDiff: 4
    itemReward: {fileID: 0}
    moneyLevel: 0
    moneyLevelReward: 0
  - mapId: 12
    phase1:
    - levelDiff: 5
    phase2:
    - levelDiff: 8
    itemReward: {fileID: 0}
    moneyLevel: 0
    moneyLevelReward: 0
  - mapId: 13
    phase1:
    - levelDiff: 5
    phase2:
    - levelDiff: 8
    itemReward: {fileID: 0}
    moneyLevel: 0
    moneyLevelReward: 0
  - mapId: 14
    phase1:
    - levelDiff: 5
    phase2:
    - levelDiff: 9
    itemReward: {fileID: 0}
    moneyLevel: 0
    moneyLevelReward: 0
  - mapId: 15
    phase1:
    - levelDiff: 5
    phase2:
    - levelDiff: 9
    itemReward: {fileID: 0}
    moneyLevel: 0
    moneyLevelReward: 0
  - mapId: 16
    phase1:
    - levelDiff: 8
    phase2:
    - levelDiff: 4
    itemReward: {fileID: 0}
    moneyLevel: 0
    moneyLevelReward: 0
  - mapId: 17
    phase1:
    - levelDiff: 4
    phase2:
    - levelDiff: 10
    itemReward: {fileID: 0}
    moneyLevel: 0
    moneyLevelReward: 0
  - mapId: 18
    phase1:
    - levelDiff: 4
    phase2:
    - levelDiff: 11
    itemReward: {fileID: 0}
    moneyLevel: 0
    moneyLevelReward: 0
  - mapId: 19
    phase1:
    - levelDiff: 4
    phase2:
    - levelDiff: 12
    itemReward: {fileID: 0}
    moneyLevel: 0
    moneyLevelReward: 0
  - mapId: 20
    phase1:
    - levelDiff: 4
    phase2:
    - levelDiff: 12
    itemReward: {fileID: 0}
    moneyLevel: 0
    moneyLevelReward: 0
  - mapId: 21
    phase1:
    - levelDiff: 17
    phase2:
    - levelDiff: 18
    itemReward: {fileID: 0}
    moneyLevel: 0
    moneyLevelReward: 0
  - mapId: 22
    phase1:
    - levelDiff: 18
    phase2:
    - levelDiff: 19
    itemReward: {fileID: 0}
    moneyLevel: 0
    moneyLevelReward: 0
  - mapId: 23
    phase1:
    - levelDiff: 18
    phase2:
    - levelDiff: 19
    itemReward: {fileID: 0}
    moneyLevel: 0
    moneyLevelReward: 0
  - mapId: 24
    phase1:
    - levelDiff: 20
    phase2:
    - levelDiff: 9
    itemReward: {fileID: 0}
    moneyLevel: 0
    moneyLevelReward: 0
  - mapId: 25
    phase1:
    - levelDiff: 20
    phase2:
    - levelDiff: 9
    itemReward: {fileID: 0}
    moneyLevel: 0
    moneyLevelReward: 0
  - mapId: 26
    phase1:
    - levelDiff: 16
    phase2:
    - levelDiff: 9
    itemReward: {fileID: 0}
    moneyLevel: 0
    moneyLevelReward: 0
  - mapId: 27
    phase1:
    - levelDiff: 16
    phase2:
    - levelDiff: 14
    itemReward: {fileID: 0}
    moneyLevel: 0
    moneyLevelReward: 0
  - mapId: 28
    phase1:
    - levelDiff: 14
    phase2:
    - levelDiff: 18
    itemReward: {fileID: 0}
    moneyLevel: 0
    moneyLevelReward: 0
  - mapId: 29
    phase1:
    - levelDiff: 14
    phase2:
    - levelDiff: 12
    itemReward: {fileID: 0}
    moneyLevel: 0
    moneyLevelReward: 0
