%YAML 1.1
%TAG !u! tag:unity3d.com,2011:
--- !u!114 &11400000
MonoBehaviour:
  m_ObjectHideFlags: 0
  m_CorrespondingSourceObject: {fileID: 0}
  m_PrefabInstance: {fileID: 0}
  m_PrefabAsset: {fileID: 0}
  m_GameObject: {fileID: 0}
  m_Enabled: 1
  m_EditorHideFlags: 0
  m_Script: {fileID: 11500000, guid: 9394fa5f164b17e469523268319934e5, type: 3}
  m_Name: PriceCollectionData
  m_EditorClassIdentifier: 
  maxPrice: 0
  priceDatas:
  - levelPress: 0
    price: 30
  - levelPress: 1
    price: 60
  - levelPress: 2
    price: 150
  - levelPress: 3
    price: 300
  - levelPress: 4
    price: 510
  - levelPress: 5
    price: 1030
  - levelPress: 6
    price: 1520
  - levelPress: 7
    price: 2000
