%YAML 1.1
%TAG !u! tag:unity3d.com,2011:
--- !u!74 &7400000
AnimationClip:
  m_ObjectHideFlags: 0
  m_CorrespondingSourceObject: {fileID: 0}
  m_PrefabInstance: {fileID: 0}
  m_PrefabAsset: {fileID: 0}
  m_Name: Start
  serializedVersion: 6
  m_Legacy: 0
  m_Compressed: 0
  m_UseHighQualityCurve: 1
  m_RotationCurves: []
  m_CompressedRotationCurves: []
  m_EulerCurves: []
  m_PositionCurves: []
  m_ScaleCurves: []
  m_FloatCurves: []
  m_PPtrCurves:
  - curve:
    - time: 0
      value: {fileID: 21300000, guid: 2c6f51c19081aeb4a9deaeba2931973e, type: 3}
    - time: 0.016666668
      value: {fileID: 21300000, guid: 63728581a35656e448473cb873346dfb, type: 3}
    - time: 0.05
      value: {fileID: 21300000, guid: e7861320ac2849f4e8fbae164636e32f, type: 3}
    - time: 0.06666667
      value: {fileID: 21300000, guid: fc35fc133543c964e95ce64d8423ea7e, type: 3}
    - time: 0.083333336
      value: {fileID: 21300000, guid: 223e0a5e4bde798459afca2a1d6bccec, type: 3}
    - time: 0.1
      value: {fileID: 21300000, guid: 09d3eb5b99583bb43b1ba1d0a1df3fc8, type: 3}
    - time: 0.11666667
      value: {fileID: 21300000, guid: 4520fda12bce4f84eaf0ac6fc6d00c93, type: 3}
    - time: 0.15
      value: {fileID: 21300000, guid: f99d7d8cf365fe745aef9537d50e6bf4, type: 3}
    - time: 0.16666667
      value: {fileID: 21300000, guid: b437533bbd08a3044aedde1af6d094e1, type: 3}
    - time: 0.18333334
      value: {fileID: 21300000, guid: bc86860aca94ac54ab36d6fa82a87b92, type: 3}
    - time: 0.21666667
      value: {fileID: 21300000, guid: e9f458b64642d904ea8c849f33a90e88, type: 3}
    - time: 0.23333333
      value: {fileID: 21300000, guid: 3accdfd30c1924644ad78713270fa8a2, type: 3}
    - time: 0.25
      value: {fileID: 21300000, guid: 678450c7151260841acb9691c5acc715, type: 3}
    - time: 0.26666668
      value: {fileID: 21300000, guid: 90672c4cd324be74793dc0f86ba38a16, type: 3}
    - time: 0.28333333
      value: {fileID: 21300000, guid: 9c688057d772dbb468e5556cf60b85f2, type: 3}
    - time: 0.31666666
      value: {fileID: 21300000, guid: 002f0d510bc24314e944c05371507b8b, type: 3}
    - time: 0.33333334
      value: {fileID: 21300000, guid: 86c1ece6795498b47971c7079b1a05f5, type: 3}
    attribute: m_Sprite
    path: 
    classID: 114
    script: {fileID: 11500000, guid: fe87c0e1cc204ed48ad3b37840f39efc, type: 3}
  m_SampleRate: 60
  m_WrapMode: 0
  m_Bounds:
    m_Center: {x: 0, y: 0, z: 0}
    m_Extent: {x: 0, y: 0, z: 0}
  m_ClipBindingConstant:
    genericBindings:
    - serializedVersion: 2
      path: 0
      attribute: 2015549526
      script: {fileID: 11500000, guid: fe87c0e1cc204ed48ad3b37840f39efc, type: 3}
      typeID: 114
      customType: 0
      isPPtrCurve: 1
    pptrCurveMapping:
    - {fileID: 21300000, guid: 2c6f51c19081aeb4a9deaeba2931973e, type: 3}
    - {fileID: 21300000, guid: 63728581a35656e448473cb873346dfb, type: 3}
    - {fileID: 21300000, guid: e7861320ac2849f4e8fbae164636e32f, type: 3}
    - {fileID: 21300000, guid: fc35fc133543c964e95ce64d8423ea7e, type: 3}
    - {fileID: 21300000, guid: 223e0a5e4bde798459afca2a1d6bccec, type: 3}
    - {fileID: 21300000, guid: 09d3eb5b99583bb43b1ba1d0a1df3fc8, type: 3}
    - {fileID: 21300000, guid: 4520fda12bce4f84eaf0ac6fc6d00c93, type: 3}
    - {fileID: 21300000, guid: f99d7d8cf365fe745aef9537d50e6bf4, type: 3}
    - {fileID: 21300000, guid: b437533bbd08a3044aedde1af6d094e1, type: 3}
    - {fileID: 21300000, guid: bc86860aca94ac54ab36d6fa82a87b92, type: 3}
    - {fileID: 21300000, guid: e9f458b64642d904ea8c849f33a90e88, type: 3}
    - {fileID: 21300000, guid: 3accdfd30c1924644ad78713270fa8a2, type: 3}
    - {fileID: 21300000, guid: 678450c7151260841acb9691c5acc715, type: 3}
    - {fileID: 21300000, guid: 90672c4cd324be74793dc0f86ba38a16, type: 3}
    - {fileID: 21300000, guid: 9c688057d772dbb468e5556cf60b85f2, type: 3}
    - {fileID: 21300000, guid: 002f0d510bc24314e944c05371507b8b, type: 3}
    - {fileID: 21300000, guid: 86c1ece6795498b47971c7079b1a05f5, type: 3}
  m_AnimationClipSettings:
    serializedVersion: 2
    m_AdditiveReferencePoseClip: {fileID: 0}
    m_AdditiveReferencePoseTime: 0
    m_StartTime: 0
    m_StopTime: 0.35000002
    m_OrientationOffsetY: 0
    m_Level: 0
    m_CycleOffset: 0
    m_HasAdditiveReferencePose: 0
    m_LoopTime: 0
    m_LoopBlend: 0
    m_LoopBlendOrientation: 0
    m_LoopBlendPositionY: 0
    m_LoopBlendPositionXZ: 0
    m_KeepOriginalOrientation: 0
    m_KeepOriginalPositionY: 1
    m_KeepOriginalPositionXZ: 0
    m_HeightFromFeet: 0
    m_Mirror: 0
  m_EditorCurves: []
  m_EulerEditorCurves: []
  m_HasGenericRootTransform: 0
  m_HasMotionFloatCurves: 0
  m_Events: []
