-target:library
-out:"Library/Bee/artifacts/1900b0aE.dag/MoreMountains.Feedbacks.dll"
-refout:"Library/Bee/artifacts/1900b0aE.dag/MoreMountains.Feedbacks.ref.dll"
-define:UNITY_2021_3_18
-define:UNITY_2021_3
-define:UNITY_2021
-define:UNITY_5_3_OR_NEWER
-define:UNITY_5_4_OR_NEWER
-define:UNITY_5_5_OR_NEWER
-define:UNITY_5_6_OR_NEWER
-define:UNITY_2017_1_OR_NEWER
-define:UNITY_2017_2_OR_NEWER
-define:UNITY_2017_3_OR_NEWER
-define:UNITY_2017_4_OR_NEWER
-define:UNITY_2018_1_OR_NEWER
-define:UNITY_2018_2_OR_NEWER
-define:UNITY_2018_3_OR_NEWER
-define:UNITY_2018_4_OR_NEWER
-define:UNITY_2019_1_OR_NEWER
-define:UNITY_2019_2_OR_NEWER
-define:UNITY_2019_3_OR_NEWER
-define:UNITY_2019_4_OR_NEWER
-define:UNITY_2020_1_OR_NEWER
-define:UNITY_2020_2_OR_NEWER
-define:UNITY_2020_3_OR_NEWER
-define:UNITY_2021_1_OR_NEWER
-define:UNITY_2021_2_OR_NEWER
-define:UNITY_2021_3_OR_NEWER
-define:PLATFORM_ARCH_64
-define:UNITY_64
-define:UNITY_INCLUDE_TESTS
-define:ENABLE_AR
-define:ENABLE_AUDIO
-define:ENABLE_CACHING
-define:ENABLE_CLOTH
-define:ENABLE_EVENT_QUEUE
-define:ENABLE_MICROPHONE
-define:ENABLE_MULTIPLE_DISPLAYS
-define:ENABLE_PHYSICS
-define:ENABLE_TEXTURE_STREAMING
-define:ENABLE_VIRTUALTEXTURING
-define:ENABLE_UNET
-define:ENABLE_LZMA
-define:ENABLE_UNITYEVENTS
-define:ENABLE_VR
-define:ENABLE_WEBCAM
-define:ENABLE_UNITYWEBREQUEST
-define:ENABLE_WWW
-define:ENABLE_CLOUD_SERVICES
-define:ENABLE_CLOUD_SERVICES_COLLAB
-define:ENABLE_CLOUD_SERVICES_COLLAB_SOFTLOCKS
-define:ENABLE_CLOUD_SERVICES_ADS
-define:ENABLE_CLOUD_SERVICES_USE_WEBREQUEST
-define:ENABLE_CLOUD_SERVICES_CRASH_REPORTING
-define:ENABLE_CLOUD_SERVICES_PURCHASING
-define:ENABLE_CLOUD_SERVICES_ANALYTICS
-define:ENABLE_CLOUD_SERVICES_UNET
-define:ENABLE_CLOUD_SERVICES_BUILD
-define:ENABLE_CLOUD_LICENSE
-define:ENABLE_EDITOR_HUB_LICENSE
-define:ENABLE_WEBSOCKET_CLIENT
-define:ENABLE_DIRECTOR_AUDIO
-define:ENABLE_DIRECTOR_TEXTURE
-define:ENABLE_MANAGED_JOBS
-define:ENABLE_MANAGED_TRANSFORM_JOBS
-define:ENABLE_MANAGED_ANIMATION_JOBS
-define:ENABLE_MANAGED_AUDIO_JOBS
-define:ENABLE_MANAGED_UNITYTLS
-define:INCLUDE_DYNAMIC_GI
-define:ENABLE_SCRIPTING_GC_WBARRIERS
-define:PLATFORM_SUPPORTS_MONO
-define:RENDER_SOFTWARE_CURSOR
-define:ENABLE_VIDEO
-define:ENABLE_ACCELERATOR_CLIENT_DEBUGGING
-define:PLATFORM_STANDALONE
-define:TEXTCORE_1_0_OR_NEWER
-define:PLATFORM_STANDALONE_WIN
-define:UNITY_STANDALONE_WIN
-define:UNITY_STANDALONE
-define:ENABLE_RUNTIME_GI
-define:ENABLE_MOVIES
-define:ENABLE_NETWORK
-define:ENABLE_NVIDIA
-define:ENABLE_CRUNCH_TEXTURE_COMPRESSION
-define:ENABLE_UNITY_GAME_SERVICES_ANALYTICS_SUPPORT
-define:ENABLE_OUT_OF_PROCESS_CRASH_HANDLER
-define:ENABLE_CLUSTER_SYNC
-define:ENABLE_CLUSTERINPUT
-define:PLATFORM_UPDATES_TIME_OUTSIDE_OF_PLAYER_LOOP
-define:GFXDEVICE_WAITFOREVENT_MESSAGEPUMP
-define:ENABLE_WEBSOCKET_HOST
-define:ENABLE_MONO
-define:NET_STANDARD_2_0
-define:NET_STANDARD
-define:NET_STANDARD_2_1
-define:NETSTANDARD
-define:NETSTANDARD2_1
-define:ENABLE_PROFILER
-define:DEBUG
-define:TRACE
-define:UNITY_ASSERTIONS
-define:UNITY_EDITOR
-define:UNITY_EDITOR_64
-define:UNITY_EDITOR_WIN
-define:ENABLE_UNITY_COLLECTIONS_CHECKS
-define:ENABLE_BURST_AOT
-define:UNITY_TEAM_LICENSE
-define:ENABLE_CUSTOM_RENDER_TEXTURE
-define:ENABLE_DIRECTOR
-define:ENABLE_LOCALIZATION
-define:ENABLE_SPRITES
-define:ENABLE_TERRAIN
-define:ENABLE_TILEMAP
-define:ENABLE_TIMELINE
-define:ENABLE_LEGACY_INPUT_MANAGER
-define:TEXTCORE_FONT_ENGINE_1_5_OR_NEWER
-define:UNITY_VISUAL_SCRIPTING
-define:MOREMOUNTAINS_NICEVIBRATIONS_INSTALLED
-define:ODIN_INSPECTOR
-define:ODIN_INSPECTOR_3
-define:ODIN_INSPECTOR_3_1
-define:MM_TEXTMESHPRO
-define:CSHARP_7_OR_LATER
-define:CSHARP_7_3_OR_NEWER
-r:"Assets/AppsFlyer/Tests/Castle.Core.dll"
-r:"Assets/AppsFlyer/Tests/NSubstitute.dll"
-r:"Assets/AppsFlyer/Tests/System.Runtime.CompilerServices.Unsafe.dll"
-r:"Assets/ExternalDependencyManager/Editor/1.2.175/Google.IOSResolver.dll"
-r:"Assets/ExternalDependencyManager/Editor/1.2.175/Google.JarResolver.dll"
-r:"Assets/ExternalDependencyManager/Editor/1.2.175/Google.PackageManagerResolver.dll"
-r:"Assets/ExternalDependencyManager/Editor/1.2.175/Google.VersionHandlerImpl.dll"
-r:"Assets/ExternalDependencyManager/Editor/Google.VersionHandler.dll"
-r:"Assets/Firebase/Editor/Firebase.Crashlytics.Editor.dll"
-r:"Assets/Firebase/Editor/Firebase.Editor.dll"
-r:"Assets/Firebase/Plugins/Firebase.Analytics.dll"
-r:"Assets/Firebase/Plugins/Firebase.App.dll"
-r:"Assets/Firebase/Plugins/Firebase.Crashlytics.dll"
-r:"Assets/Firebase/Plugins/Firebase.Platform.dll"
-r:"Assets/Firebase/Plugins/Firebase.RemoteConfig.dll"
-r:"Assets/Firebase/Plugins/Firebase.TaskExtension.dll"
-r:"Assets/Firebase/Plugins/Google.MiniJson.dll"
-r:"Assets/Plugins/Demigiant/DemiLib/Core/DemiLib.dll"
-r:"Assets/Plugins/Demigiant/DemiLib/Core/Editor/DemiEditor.dll"
-r:"Assets/Plugins/Demigiant/DOTween/DOTween.dll"
-r:"Assets/Plugins/Demigiant/DOTween/Editor/DOTweenEditor.dll"
-r:"Assets/Plugins/Demigiant/DOTweenPro/DOTweenPro.dll"
-r:"Assets/Plugins/Demigiant/DOTweenPro/Editor/DOTweenProEditor.dll"
-r:"Assets/Plugins/Sirenix/Assemblies/Sirenix.OdinInspector.Attributes.dll"
-r:"Assets/Plugins/Sirenix/Assemblies/Sirenix.OdinInspector.Editor.dll"
-r:"Assets/Plugins/Sirenix/Assemblies/Sirenix.Serialization.Config.dll"
-r:"Assets/Plugins/Sirenix/Assemblies/Sirenix.Serialization.dll"
-r:"Assets/Plugins/Sirenix/Assemblies/Sirenix.Utilities.dll"
-r:"Assets/Plugins/Sirenix/Assemblies/Sirenix.Utilities.Editor.dll"
-r:"F:/perfectslicer-ver-2/Library/PackageCache/com.unity.burst@1.6.6/Unity.Burst.CodeGen/Unity.Burst.Cecil.dll"
-r:"F:/perfectslicer-ver-2/Library/PackageCache/com.unity.burst@1.6.6/Unity.Burst.CodeGen/Unity.Burst.Cecil.Mdb.dll"
-r:"F:/perfectslicer-ver-2/Library/PackageCache/com.unity.burst@1.6.6/Unity.Burst.CodeGen/Unity.Burst.Cecil.Pdb.dll"
-r:"F:/perfectslicer-ver-2/Library/PackageCache/com.unity.burst@1.6.6/Unity.Burst.CodeGen/Unity.Burst.Cecil.Rocks.dll"
-r:"F:/perfectslicer-ver-2/Library/PackageCache/com.unity.burst@1.6.6/Unity.Burst.Unsafe.dll"
-r:"F:/perfectslicer-ver-2/Library/PackageCache/com.unity.collab-proxy@2.0.0/Lib/Editor/PlasticSCM/log4netPlastic.dll"
-r:"F:/perfectslicer-ver-2/Library/PackageCache/com.unity.collab-proxy@2.0.0/Lib/Editor/PlasticSCM/Unity.Plastic.Antlr3.Runtime.dll"
-r:"F:/perfectslicer-ver-2/Library/PackageCache/com.unity.collab-proxy@2.0.0/Lib/Editor/PlasticSCM/Unity.Plastic.Newtonsoft.Json.dll"
-r:"F:/perfectslicer-ver-2/Library/PackageCache/com.unity.collab-proxy@2.0.0/Lib/Editor/PlasticSCM/unityplastic.dll"
-r:"F:/perfectslicer-ver-2/Library/PackageCache/com.unity.testtools.codecoverage@1.2.2/lib/ReportGenerator/ReportGeneratorMerged.dll"
-r:"F:/perfectslicer-ver-2/Library/PackageCache/com.unity.visualscripting@1.8.0/Editor/VisualScripting.Core/Dependencies/DotNetZip/Unity.VisualScripting.IonicZip.dll"
-r:"F:/perfectslicer-ver-2/Library/PackageCache/com.unity.visualscripting@1.8.0/Editor/VisualScripting.Core/Dependencies/YamlDotNet/Unity.VisualScripting.YamlDotNet.dll"
-r:"F:/perfectslicer-ver-2/Library/PackageCache/com.unity.visualscripting@1.8.0/Editor/VisualScripting.Core/EditorAssetResources/Unity.VisualScripting.TextureAssets.dll"
-r:"F:/perfectslicer-ver-2/Library/PackageCache/com.unity.visualscripting@1.8.0/Runtime/VisualScripting.Flow/Dependencies/NCalc/Unity.VisualScripting.Antlr3.Runtime.dll"
-r:"F:/Program/2021.3.18f1/Editor/Data/Managed/UnityEditor.Graphs.dll"
-r:"F:/Program/2021.3.18f1/Editor/Data/Managed/UnityEngine/UnityEditor.CoreModule.dll"
-r:"F:/Program/2021.3.18f1/Editor/Data/Managed/UnityEngine/UnityEditor.DeviceSimulatorModule.dll"
-r:"F:/Program/2021.3.18f1/Editor/Data/Managed/UnityEngine/UnityEditor.DiagnosticsModule.dll"
-r:"F:/Program/2021.3.18f1/Editor/Data/Managed/UnityEngine/UnityEditor.dll"
-r:"F:/Program/2021.3.18f1/Editor/Data/Managed/UnityEngine/UnityEditor.GraphViewModule.dll"
-r:"F:/Program/2021.3.18f1/Editor/Data/Managed/UnityEngine/UnityEditor.PackageManagerUIModule.dll"
-r:"F:/Program/2021.3.18f1/Editor/Data/Managed/UnityEngine/UnityEditor.QuickSearchModule.dll"
-r:"F:/Program/2021.3.18f1/Editor/Data/Managed/UnityEngine/UnityEditor.SceneTemplateModule.dll"
-r:"F:/Program/2021.3.18f1/Editor/Data/Managed/UnityEngine/UnityEditor.TextCoreFontEngineModule.dll"
-r:"F:/Program/2021.3.18f1/Editor/Data/Managed/UnityEngine/UnityEditor.TextCoreTextEngineModule.dll"
-r:"F:/Program/2021.3.18f1/Editor/Data/Managed/UnityEngine/UnityEditor.UIBuilderModule.dll"
-r:"F:/Program/2021.3.18f1/Editor/Data/Managed/UnityEngine/UnityEditor.UIElementsModule.dll"
-r:"F:/Program/2021.3.18f1/Editor/Data/Managed/UnityEngine/UnityEditor.UIElementsSamplesModule.dll"
-r:"F:/Program/2021.3.18f1/Editor/Data/Managed/UnityEngine/UnityEditor.UIServiceModule.dll"
-r:"F:/Program/2021.3.18f1/Editor/Data/Managed/UnityEngine/UnityEditor.UnityConnectModule.dll"
-r:"F:/Program/2021.3.18f1/Editor/Data/Managed/UnityEngine/UnityEngine.AccessibilityModule.dll"
-r:"F:/Program/2021.3.18f1/Editor/Data/Managed/UnityEngine/UnityEngine.AIModule.dll"
-r:"F:/Program/2021.3.18f1/Editor/Data/Managed/UnityEngine/UnityEngine.AndroidJNIModule.dll"
-r:"F:/Program/2021.3.18f1/Editor/Data/Managed/UnityEngine/UnityEngine.AnimationModule.dll"
-r:"F:/Program/2021.3.18f1/Editor/Data/Managed/UnityEngine/UnityEngine.ARModule.dll"
-r:"F:/Program/2021.3.18f1/Editor/Data/Managed/UnityEngine/UnityEngine.AssetBundleModule.dll"
-r:"F:/Program/2021.3.18f1/Editor/Data/Managed/UnityEngine/UnityEngine.AudioModule.dll"
-r:"F:/Program/2021.3.18f1/Editor/Data/Managed/UnityEngine/UnityEngine.ClothModule.dll"
-r:"F:/Program/2021.3.18f1/Editor/Data/Managed/UnityEngine/UnityEngine.ClusterInputModule.dll"
-r:"F:/Program/2021.3.18f1/Editor/Data/Managed/UnityEngine/UnityEngine.ClusterRendererModule.dll"
-r:"F:/Program/2021.3.18f1/Editor/Data/Managed/UnityEngine/UnityEngine.CoreModule.dll"
-r:"F:/Program/2021.3.18f1/Editor/Data/Managed/UnityEngine/UnityEngine.CrashReportingModule.dll"
-r:"F:/Program/2021.3.18f1/Editor/Data/Managed/UnityEngine/UnityEngine.DirectorModule.dll"
-r:"F:/Program/2021.3.18f1/Editor/Data/Managed/UnityEngine/UnityEngine.dll"
-r:"F:/Program/2021.3.18f1/Editor/Data/Managed/UnityEngine/UnityEngine.DSPGraphModule.dll"
-r:"F:/Program/2021.3.18f1/Editor/Data/Managed/UnityEngine/UnityEngine.GameCenterModule.dll"
-r:"F:/Program/2021.3.18f1/Editor/Data/Managed/UnityEngine/UnityEngine.GIModule.dll"
-r:"F:/Program/2021.3.18f1/Editor/Data/Managed/UnityEngine/UnityEngine.GridModule.dll"
-r:"F:/Program/2021.3.18f1/Editor/Data/Managed/UnityEngine/UnityEngine.HotReloadModule.dll"
-r:"F:/Program/2021.3.18f1/Editor/Data/Managed/UnityEngine/UnityEngine.ImageConversionModule.dll"
-r:"F:/Program/2021.3.18f1/Editor/Data/Managed/UnityEngine/UnityEngine.IMGUIModule.dll"
-r:"F:/Program/2021.3.18f1/Editor/Data/Managed/UnityEngine/UnityEngine.InputLegacyModule.dll"
-r:"F:/Program/2021.3.18f1/Editor/Data/Managed/UnityEngine/UnityEngine.InputModule.dll"
-r:"F:/Program/2021.3.18f1/Editor/Data/Managed/UnityEngine/UnityEngine.JSONSerializeModule.dll"
-r:"F:/Program/2021.3.18f1/Editor/Data/Managed/UnityEngine/UnityEngine.LocalizationModule.dll"
-r:"F:/Program/2021.3.18f1/Editor/Data/Managed/UnityEngine/UnityEngine.ParticleSystemModule.dll"
-r:"F:/Program/2021.3.18f1/Editor/Data/Managed/UnityEngine/UnityEngine.PerformanceReportingModule.dll"
-r:"F:/Program/2021.3.18f1/Editor/Data/Managed/UnityEngine/UnityEngine.Physics2DModule.dll"
-r:"F:/Program/2021.3.18f1/Editor/Data/Managed/UnityEngine/UnityEngine.PhysicsModule.dll"
-r:"F:/Program/2021.3.18f1/Editor/Data/Managed/UnityEngine/UnityEngine.ProfilerModule.dll"
-r:"F:/Program/2021.3.18f1/Editor/Data/Managed/UnityEngine/UnityEngine.RuntimeInitializeOnLoadManagerInitializerModule.dll"
-r:"F:/Program/2021.3.18f1/Editor/Data/Managed/UnityEngine/UnityEngine.ScreenCaptureModule.dll"
-r:"F:/Program/2021.3.18f1/Editor/Data/Managed/UnityEngine/UnityEngine.SharedInternalsModule.dll"
-r:"F:/Program/2021.3.18f1/Editor/Data/Managed/UnityEngine/UnityEngine.SpriteMaskModule.dll"
-r:"F:/Program/2021.3.18f1/Editor/Data/Managed/UnityEngine/UnityEngine.SpriteShapeModule.dll"
-r:"F:/Program/2021.3.18f1/Editor/Data/Managed/UnityEngine/UnityEngine.StreamingModule.dll"
-r:"F:/Program/2021.3.18f1/Editor/Data/Managed/UnityEngine/UnityEngine.SubstanceModule.dll"
-r:"F:/Program/2021.3.18f1/Editor/Data/Managed/UnityEngine/UnityEngine.SubsystemsModule.dll"
-r:"F:/Program/2021.3.18f1/Editor/Data/Managed/UnityEngine/UnityEngine.TerrainModule.dll"
-r:"F:/Program/2021.3.18f1/Editor/Data/Managed/UnityEngine/UnityEngine.TerrainPhysicsModule.dll"
-r:"F:/Program/2021.3.18f1/Editor/Data/Managed/UnityEngine/UnityEngine.TextCoreFontEngineModule.dll"
-r:"F:/Program/2021.3.18f1/Editor/Data/Managed/UnityEngine/UnityEngine.TextCoreTextEngineModule.dll"
-r:"F:/Program/2021.3.18f1/Editor/Data/Managed/UnityEngine/UnityEngine.TextRenderingModule.dll"
-r:"F:/Program/2021.3.18f1/Editor/Data/Managed/UnityEngine/UnityEngine.TilemapModule.dll"
-r:"F:/Program/2021.3.18f1/Editor/Data/Managed/UnityEngine/UnityEngine.TLSModule.dll"
-r:"F:/Program/2021.3.18f1/Editor/Data/Managed/UnityEngine/UnityEngine.UIElementsModule.dll"
-r:"F:/Program/2021.3.18f1/Editor/Data/Managed/UnityEngine/UnityEngine.UIElementsNativeModule.dll"
-r:"F:/Program/2021.3.18f1/Editor/Data/Managed/UnityEngine/UnityEngine.UIModule.dll"
-r:"F:/Program/2021.3.18f1/Editor/Data/Managed/UnityEngine/UnityEngine.UmbraModule.dll"
-r:"F:/Program/2021.3.18f1/Editor/Data/Managed/UnityEngine/UnityEngine.UNETModule.dll"
-r:"F:/Program/2021.3.18f1/Editor/Data/Managed/UnityEngine/UnityEngine.UnityAnalyticsCommonModule.dll"
-r:"F:/Program/2021.3.18f1/Editor/Data/Managed/UnityEngine/UnityEngine.UnityAnalyticsModule.dll"
-r:"F:/Program/2021.3.18f1/Editor/Data/Managed/UnityEngine/UnityEngine.UnityConnectModule.dll"
-r:"F:/Program/2021.3.18f1/Editor/Data/Managed/UnityEngine/UnityEngine.UnityCurlModule.dll"
-r:"F:/Program/2021.3.18f1/Editor/Data/Managed/UnityEngine/UnityEngine.UnityTestProtocolModule.dll"
-r:"F:/Program/2021.3.18f1/Editor/Data/Managed/UnityEngine/UnityEngine.UnityWebRequestAssetBundleModule.dll"
-r:"F:/Program/2021.3.18f1/Editor/Data/Managed/UnityEngine/UnityEngine.UnityWebRequestAudioModule.dll"
-r:"F:/Program/2021.3.18f1/Editor/Data/Managed/UnityEngine/UnityEngine.UnityWebRequestModule.dll"
-r:"F:/Program/2021.3.18f1/Editor/Data/Managed/UnityEngine/UnityEngine.UnityWebRequestTextureModule.dll"
-r:"F:/Program/2021.3.18f1/Editor/Data/Managed/UnityEngine/UnityEngine.UnityWebRequestWWWModule.dll"
-r:"F:/Program/2021.3.18f1/Editor/Data/Managed/UnityEngine/UnityEngine.VehiclesModule.dll"
-r:"F:/Program/2021.3.18f1/Editor/Data/Managed/UnityEngine/UnityEngine.VFXModule.dll"
-r:"F:/Program/2021.3.18f1/Editor/Data/Managed/UnityEngine/UnityEngine.VideoModule.dll"
-r:"F:/Program/2021.3.18f1/Editor/Data/Managed/UnityEngine/UnityEngine.VirtualTexturingModule.dll"
-r:"F:/Program/2021.3.18f1/Editor/Data/Managed/UnityEngine/UnityEngine.VRModule.dll"
-r:"F:/Program/2021.3.18f1/Editor/Data/Managed/UnityEngine/UnityEngine.WindModule.dll"
-r:"F:/Program/2021.3.18f1/Editor/Data/Managed/UnityEngine/UnityEngine.XRModule.dll"
-r:"F:/Program/2021.3.18f1/Editor/Data/NetStandard/compat/2.1.0/shims/netfx/mscorlib.dll"
-r:"F:/Program/2021.3.18f1/Editor/Data/NetStandard/compat/2.1.0/shims/netfx/System.ComponentModel.Composition.dll"
-r:"F:/Program/2021.3.18f1/Editor/Data/NetStandard/compat/2.1.0/shims/netfx/System.Core.dll"
-r:"F:/Program/2021.3.18f1/Editor/Data/NetStandard/compat/2.1.0/shims/netfx/System.Data.dll"
-r:"F:/Program/2021.3.18f1/Editor/Data/NetStandard/compat/2.1.0/shims/netfx/System.dll"
-r:"F:/Program/2021.3.18f1/Editor/Data/NetStandard/compat/2.1.0/shims/netfx/System.Drawing.dll"
-r:"F:/Program/2021.3.18f1/Editor/Data/NetStandard/compat/2.1.0/shims/netfx/System.IO.Compression.FileSystem.dll"
-r:"F:/Program/2021.3.18f1/Editor/Data/NetStandard/compat/2.1.0/shims/netfx/System.Net.dll"
-r:"F:/Program/2021.3.18f1/Editor/Data/NetStandard/compat/2.1.0/shims/netfx/System.Numerics.dll"
-r:"F:/Program/2021.3.18f1/Editor/Data/NetStandard/compat/2.1.0/shims/netfx/System.Runtime.Serialization.dll"
-r:"F:/Program/2021.3.18f1/Editor/Data/NetStandard/compat/2.1.0/shims/netfx/System.ServiceModel.Web.dll"
-r:"F:/Program/2021.3.18f1/Editor/Data/NetStandard/compat/2.1.0/shims/netfx/System.Transactions.dll"
-r:"F:/Program/2021.3.18f1/Editor/Data/NetStandard/compat/2.1.0/shims/netfx/System.Web.dll"
-r:"F:/Program/2021.3.18f1/Editor/Data/NetStandard/compat/2.1.0/shims/netfx/System.Windows.dll"
-r:"F:/Program/2021.3.18f1/Editor/Data/NetStandard/compat/2.1.0/shims/netfx/System.Xml.dll"
-r:"F:/Program/2021.3.18f1/Editor/Data/NetStandard/compat/2.1.0/shims/netfx/System.Xml.Linq.dll"
-r:"F:/Program/2021.3.18f1/Editor/Data/NetStandard/compat/2.1.0/shims/netfx/System.Xml.Serialization.dll"
-r:"F:/Program/2021.3.18f1/Editor/Data/NetStandard/compat/2.1.0/shims/netstandard/Microsoft.Win32.Primitives.dll"
-r:"F:/Program/2021.3.18f1/Editor/Data/NetStandard/compat/2.1.0/shims/netstandard/System.AppContext.dll"
-r:"F:/Program/2021.3.18f1/Editor/Data/NetStandard/compat/2.1.0/shims/netstandard/System.Buffers.dll"
-r:"F:/Program/2021.3.18f1/Editor/Data/NetStandard/compat/2.1.0/shims/netstandard/System.Collections.Concurrent.dll"
-r:"F:/Program/2021.3.18f1/Editor/Data/NetStandard/compat/2.1.0/shims/netstandard/System.Collections.dll"
-r:"F:/Program/2021.3.18f1/Editor/Data/NetStandard/compat/2.1.0/shims/netstandard/System.Collections.NonGeneric.dll"
-r:"F:/Program/2021.3.18f1/Editor/Data/NetStandard/compat/2.1.0/shims/netstandard/System.Collections.Specialized.dll"
-r:"F:/Program/2021.3.18f1/Editor/Data/NetStandard/compat/2.1.0/shims/netstandard/System.ComponentModel.dll"
-r:"F:/Program/2021.3.18f1/Editor/Data/NetStandard/compat/2.1.0/shims/netstandard/System.ComponentModel.EventBasedAsync.dll"
-r:"F:/Program/2021.3.18f1/Editor/Data/NetStandard/compat/2.1.0/shims/netstandard/System.ComponentModel.Primitives.dll"
-r:"F:/Program/2021.3.18f1/Editor/Data/NetStandard/compat/2.1.0/shims/netstandard/System.ComponentModel.TypeConverter.dll"
-r:"F:/Program/2021.3.18f1/Editor/Data/NetStandard/compat/2.1.0/shims/netstandard/System.Console.dll"
-r:"F:/Program/2021.3.18f1/Editor/Data/NetStandard/compat/2.1.0/shims/netstandard/System.Data.Common.dll"
-r:"F:/Program/2021.3.18f1/Editor/Data/NetStandard/compat/2.1.0/shims/netstandard/System.Diagnostics.Contracts.dll"
-r:"F:/Program/2021.3.18f1/Editor/Data/NetStandard/compat/2.1.0/shims/netstandard/System.Diagnostics.Debug.dll"
-r:"F:/Program/2021.3.18f1/Editor/Data/NetStandard/compat/2.1.0/shims/netstandard/System.Diagnostics.FileVersionInfo.dll"
-r:"F:/Program/2021.3.18f1/Editor/Data/NetStandard/compat/2.1.0/shims/netstandard/System.Diagnostics.Process.dll"
-r:"F:/Program/2021.3.18f1/Editor/Data/NetStandard/compat/2.1.0/shims/netstandard/System.Diagnostics.StackTrace.dll"
-r:"F:/Program/2021.3.18f1/Editor/Data/NetStandard/compat/2.1.0/shims/netstandard/System.Diagnostics.TextWriterTraceListener.dll"
-r:"F:/Program/2021.3.18f1/Editor/Data/NetStandard/compat/2.1.0/shims/netstandard/System.Diagnostics.Tools.dll"
-r:"F:/Program/2021.3.18f1/Editor/Data/NetStandard/compat/2.1.0/shims/netstandard/System.Diagnostics.TraceSource.dll"
-r:"F:/Program/2021.3.18f1/Editor/Data/NetStandard/compat/2.1.0/shims/netstandard/System.Diagnostics.Tracing.dll"
-r:"F:/Program/2021.3.18f1/Editor/Data/NetStandard/compat/2.1.0/shims/netstandard/System.Drawing.Primitives.dll"
-r:"F:/Program/2021.3.18f1/Editor/Data/NetStandard/compat/2.1.0/shims/netstandard/System.Dynamic.Runtime.dll"
-r:"F:/Program/2021.3.18f1/Editor/Data/NetStandard/compat/2.1.0/shims/netstandard/System.Globalization.Calendars.dll"
-r:"F:/Program/2021.3.18f1/Editor/Data/NetStandard/compat/2.1.0/shims/netstandard/System.Globalization.dll"
-r:"F:/Program/2021.3.18f1/Editor/Data/NetStandard/compat/2.1.0/shims/netstandard/System.Globalization.Extensions.dll"
-r:"F:/Program/2021.3.18f1/Editor/Data/NetStandard/compat/2.1.0/shims/netstandard/System.IO.Compression.dll"
-r:"F:/Program/2021.3.18f1/Editor/Data/NetStandard/compat/2.1.0/shims/netstandard/System.IO.Compression.ZipFile.dll"
-r:"F:/Program/2021.3.18f1/Editor/Data/NetStandard/compat/2.1.0/shims/netstandard/System.IO.dll"
-r:"F:/Program/2021.3.18f1/Editor/Data/NetStandard/compat/2.1.0/shims/netstandard/System.IO.FileSystem.dll"
-r:"F:/Program/2021.3.18f1/Editor/Data/NetStandard/compat/2.1.0/shims/netstandard/System.IO.FileSystem.DriveInfo.dll"
-r:"F:/Program/2021.3.18f1/Editor/Data/NetStandard/compat/2.1.0/shims/netstandard/System.IO.FileSystem.Primitives.dll"
-r:"F:/Program/2021.3.18f1/Editor/Data/NetStandard/compat/2.1.0/shims/netstandard/System.IO.FileSystem.Watcher.dll"
-r:"F:/Program/2021.3.18f1/Editor/Data/NetStandard/compat/2.1.0/shims/netstandard/System.IO.IsolatedStorage.dll"
-r:"F:/Program/2021.3.18f1/Editor/Data/NetStandard/compat/2.1.0/shims/netstandard/System.IO.MemoryMappedFiles.dll"
-r:"F:/Program/2021.3.18f1/Editor/Data/NetStandard/compat/2.1.0/shims/netstandard/System.IO.Pipes.dll"
-r:"F:/Program/2021.3.18f1/Editor/Data/NetStandard/compat/2.1.0/shims/netstandard/System.IO.UnmanagedMemoryStream.dll"
-r:"F:/Program/2021.3.18f1/Editor/Data/NetStandard/compat/2.1.0/shims/netstandard/System.Linq.dll"
-r:"F:/Program/2021.3.18f1/Editor/Data/NetStandard/compat/2.1.0/shims/netstandard/System.Linq.Expressions.dll"
-r:"F:/Program/2021.3.18f1/Editor/Data/NetStandard/compat/2.1.0/shims/netstandard/System.Linq.Parallel.dll"
-r:"F:/Program/2021.3.18f1/Editor/Data/NetStandard/compat/2.1.0/shims/netstandard/System.Linq.Queryable.dll"
-r:"F:/Program/2021.3.18f1/Editor/Data/NetStandard/compat/2.1.0/shims/netstandard/System.Memory.dll"
-r:"F:/Program/2021.3.18f1/Editor/Data/NetStandard/compat/2.1.0/shims/netstandard/System.Net.Http.dll"
-r:"F:/Program/2021.3.18f1/Editor/Data/NetStandard/compat/2.1.0/shims/netstandard/System.Net.NameResolution.dll"
-r:"F:/Program/2021.3.18f1/Editor/Data/NetStandard/compat/2.1.0/shims/netstandard/System.Net.NetworkInformation.dll"
-r:"F:/Program/2021.3.18f1/Editor/Data/NetStandard/compat/2.1.0/shims/netstandard/System.Net.Ping.dll"
-r:"F:/Program/2021.3.18f1/Editor/Data/NetStandard/compat/2.1.0/shims/netstandard/System.Net.Primitives.dll"
-r:"F:/Program/2021.3.18f1/Editor/Data/NetStandard/compat/2.1.0/shims/netstandard/System.Net.Requests.dll"
-r:"F:/Program/2021.3.18f1/Editor/Data/NetStandard/compat/2.1.0/shims/netstandard/System.Net.Security.dll"
-r:"F:/Program/2021.3.18f1/Editor/Data/NetStandard/compat/2.1.0/shims/netstandard/System.Net.Sockets.dll"
-r:"F:/Program/2021.3.18f1/Editor/Data/NetStandard/compat/2.1.0/shims/netstandard/System.Net.WebHeaderCollection.dll"
-r:"F:/Program/2021.3.18f1/Editor/Data/NetStandard/compat/2.1.0/shims/netstandard/System.Net.WebSockets.Client.dll"
-r:"F:/Program/2021.3.18f1/Editor/Data/NetStandard/compat/2.1.0/shims/netstandard/System.Net.WebSockets.dll"
-r:"F:/Program/2021.3.18f1/Editor/Data/NetStandard/compat/2.1.0/shims/netstandard/System.Numerics.Vectors.dll"
-r:"F:/Program/2021.3.18f1/Editor/Data/NetStandard/compat/2.1.0/shims/netstandard/System.ObjectModel.dll"
-r:"F:/Program/2021.3.18f1/Editor/Data/NetStandard/compat/2.1.0/shims/netstandard/System.Reflection.DispatchProxy.dll"
-r:"F:/Program/2021.3.18f1/Editor/Data/NetStandard/compat/2.1.0/shims/netstandard/System.Reflection.dll"
-r:"F:/Program/2021.3.18f1/Editor/Data/NetStandard/compat/2.1.0/shims/netstandard/System.Reflection.Emit.dll"
-r:"F:/Program/2021.3.18f1/Editor/Data/NetStandard/compat/2.1.0/shims/netstandard/System.Reflection.Emit.ILGeneration.dll"
-r:"F:/Program/2021.3.18f1/Editor/Data/NetStandard/compat/2.1.0/shims/netstandard/System.Reflection.Emit.Lightweight.dll"
-r:"F:/Program/2021.3.18f1/Editor/Data/NetStandard/compat/2.1.0/shims/netstandard/System.Reflection.Extensions.dll"
-r:"F:/Program/2021.3.18f1/Editor/Data/NetStandard/compat/2.1.0/shims/netstandard/System.Reflection.Primitives.dll"
-r:"F:/Program/2021.3.18f1/Editor/Data/NetStandard/compat/2.1.0/shims/netstandard/System.Resources.Reader.dll"
-r:"F:/Program/2021.3.18f1/Editor/Data/NetStandard/compat/2.1.0/shims/netstandard/System.Resources.ResourceManager.dll"
-r:"F:/Program/2021.3.18f1/Editor/Data/NetStandard/compat/2.1.0/shims/netstandard/System.Resources.Writer.dll"
-r:"F:/Program/2021.3.18f1/Editor/Data/NetStandard/compat/2.1.0/shims/netstandard/System.Runtime.CompilerServices.VisualC.dll"
-r:"F:/Program/2021.3.18f1/Editor/Data/NetStandard/compat/2.1.0/shims/netstandard/System.Runtime.dll"
-r:"F:/Program/2021.3.18f1/Editor/Data/NetStandard/compat/2.1.0/shims/netstandard/System.Runtime.Extensions.dll"
-r:"F:/Program/2021.3.18f1/Editor/Data/NetStandard/compat/2.1.0/shims/netstandard/System.Runtime.Handles.dll"
-r:"F:/Program/2021.3.18f1/Editor/Data/NetStandard/compat/2.1.0/shims/netstandard/System.Runtime.InteropServices.dll"
-r:"F:/Program/2021.3.18f1/Editor/Data/NetStandard/compat/2.1.0/shims/netstandard/System.Runtime.InteropServices.RuntimeInformation.dll"
-r:"F:/Program/2021.3.18f1/Editor/Data/NetStandard/compat/2.1.0/shims/netstandard/System.Runtime.Numerics.dll"
-r:"F:/Program/2021.3.18f1/Editor/Data/NetStandard/compat/2.1.0/shims/netstandard/System.Runtime.Serialization.Formatters.dll"
-r:"F:/Program/2021.3.18f1/Editor/Data/NetStandard/compat/2.1.0/shims/netstandard/System.Runtime.Serialization.Json.dll"
-r:"F:/Program/2021.3.18f1/Editor/Data/NetStandard/compat/2.1.0/shims/netstandard/System.Runtime.Serialization.Primitives.dll"
-r:"F:/Program/2021.3.18f1/Editor/Data/NetStandard/compat/2.1.0/shims/netstandard/System.Runtime.Serialization.Xml.dll"
-r:"F:/Program/2021.3.18f1/Editor/Data/NetStandard/compat/2.1.0/shims/netstandard/System.Security.Claims.dll"
-r:"F:/Program/2021.3.18f1/Editor/Data/NetStandard/compat/2.1.0/shims/netstandard/System.Security.Cryptography.Algorithms.dll"
-r:"F:/Program/2021.3.18f1/Editor/Data/NetStandard/compat/2.1.0/shims/netstandard/System.Security.Cryptography.Csp.dll"
-r:"F:/Program/2021.3.18f1/Editor/Data/NetStandard/compat/2.1.0/shims/netstandard/System.Security.Cryptography.Encoding.dll"
-r:"F:/Program/2021.3.18f1/Editor/Data/NetStandard/compat/2.1.0/shims/netstandard/System.Security.Cryptography.Primitives.dll"
-r:"F:/Program/2021.3.18f1/Editor/Data/NetStandard/compat/2.1.0/shims/netstandard/System.Security.Cryptography.X509Certificates.dll"
-r:"F:/Program/2021.3.18f1/Editor/Data/NetStandard/compat/2.1.0/shims/netstandard/System.Security.Principal.dll"
-r:"F:/Program/2021.3.18f1/Editor/Data/NetStandard/compat/2.1.0/shims/netstandard/System.Security.SecureString.dll"
-r:"F:/Program/2021.3.18f1/Editor/Data/NetStandard/compat/2.1.0/shims/netstandard/System.Text.Encoding.dll"
-r:"F:/Program/2021.3.18f1/Editor/Data/NetStandard/compat/2.1.0/shims/netstandard/System.Text.Encoding.Extensions.dll"
-r:"F:/Program/2021.3.18f1/Editor/Data/NetStandard/compat/2.1.0/shims/netstandard/System.Text.RegularExpressions.dll"
-r:"F:/Program/2021.3.18f1/Editor/Data/NetStandard/compat/2.1.0/shims/netstandard/System.Threading.dll"
-r:"F:/Program/2021.3.18f1/Editor/Data/NetStandard/compat/2.1.0/shims/netstandard/System.Threading.Overlapped.dll"
-r:"F:/Program/2021.3.18f1/Editor/Data/NetStandard/compat/2.1.0/shims/netstandard/System.Threading.Tasks.dll"
-r:"F:/Program/2021.3.18f1/Editor/Data/NetStandard/compat/2.1.0/shims/netstandard/System.Threading.Tasks.Extensions.dll"
-r:"F:/Program/2021.3.18f1/Editor/Data/NetStandard/compat/2.1.0/shims/netstandard/System.Threading.Tasks.Parallel.dll"
-r:"F:/Program/2021.3.18f1/Editor/Data/NetStandard/compat/2.1.0/shims/netstandard/System.Threading.Thread.dll"
-r:"F:/Program/2021.3.18f1/Editor/Data/NetStandard/compat/2.1.0/shims/netstandard/System.Threading.ThreadPool.dll"
-r:"F:/Program/2021.3.18f1/Editor/Data/NetStandard/compat/2.1.0/shims/netstandard/System.Threading.Timer.dll"
-r:"F:/Program/2021.3.18f1/Editor/Data/NetStandard/compat/2.1.0/shims/netstandard/System.ValueTuple.dll"
-r:"F:/Program/2021.3.18f1/Editor/Data/NetStandard/compat/2.1.0/shims/netstandard/System.Xml.ReaderWriter.dll"
-r:"F:/Program/2021.3.18f1/Editor/Data/NetStandard/compat/2.1.0/shims/netstandard/System.Xml.XDocument.dll"
-r:"F:/Program/2021.3.18f1/Editor/Data/NetStandard/compat/2.1.0/shims/netstandard/System.Xml.XmlDocument.dll"
-r:"F:/Program/2021.3.18f1/Editor/Data/NetStandard/compat/2.1.0/shims/netstandard/System.Xml.XmlSerializer.dll"
-r:"F:/Program/2021.3.18f1/Editor/Data/NetStandard/compat/2.1.0/shims/netstandard/System.Xml.XPath.dll"
-r:"F:/Program/2021.3.18f1/Editor/Data/NetStandard/compat/2.1.0/shims/netstandard/System.Xml.XPath.XDocument.dll"
-r:"F:/Program/2021.3.18f1/Editor/Data/NetStandard/Extensions/2.0.0/System.Runtime.InteropServices.WindowsRuntime.dll"
-r:"F:/Program/2021.3.18f1/Editor/Data/NetStandard/ref/2.1.0/netstandard.dll"
-r:"F:/Program/2021.3.18f1/Editor/Data/PlaybackEngines/AndroidPlayer/Unity.Android.Gradle.dll"
-r:"F:/Program/2021.3.18f1/Editor/Data/PlaybackEngines/AndroidPlayer/Unity.Android.Types.dll"
-r:"F:/Program/2021.3.18f1/Editor/Data/PlaybackEngines/AndroidPlayer/UnityEditor.Android.Extensions.dll"
-r:"F:/Program/2021.3.18f1/Editor/Data/PlaybackEngines/iOSSupport/UnityEditor.iOS.Extensions.Common.dll"
-r:"F:/Program/2021.3.18f1/Editor/Data/PlaybackEngines/iOSSupport/UnityEditor.iOS.Extensions.dll"
-r:"F:/Program/2021.3.18f1/Editor/Data/PlaybackEngines/iOSSupport/UnityEditor.iOS.Extensions.Xcode.dll"
-r:"F:/Program/2021.3.18f1/Editor/Data/PlaybackEngines/WebGLSupport/UnityEditor.WebGL.Extensions.dll"
-r:"F:/Program/2021.3.18f1/Editor/Data/PlaybackEngines/WindowsStandaloneSupport/UnityEditor.WindowsStandalone.Extensions.dll"
-r:"Library/Bee/artifacts/1900b0aE.dag/Lofelt.NiceVibrations.ref.dll"
-r:"Library/Bee/artifacts/1900b0aE.dag/MoreMountains.Tools.ref.dll"
-r:"Library/Bee/artifacts/1900b0aE.dag/Unity.TextMeshPro.ref.dll"
-r:"Library/Bee/artifacts/1900b0aE.dag/UnityEditor.UI.ref.dll"
-r:"Library/Bee/artifacts/1900b0aE.dag/UnityEngine.UI.ref.dll"
"Assets/Plugins/Feel/MMFeedbacks/Demos/MMFeedbacksDemo/Scripts/DemoBall.cs"
"Assets/Plugins/Feel/MMFeedbacks/Demos/MMFeedbacksDemo/Scripts/DemoButton.cs"
"Assets/Plugins/Feel/MMFeedbacks/Demos/MMFeedbacksDemo/Scripts/DemoGhost.cs"
"Assets/Plugins/Feel/MMFeedbacks/Demos/MMFeedbacksDemo/Scripts/DemoPackageTester.cs"
"Assets/Plugins/Feel/MMFeedbacks/Demos/MMFeedbacksDemo/Scripts/MMFDependencyInstaller.cs"
"Assets/Plugins/Feel/MMFeedbacks/MMFeedbacks/Core/Legacy/MMFeedback.cs"
"Assets/Plugins/Feel/MMFeedbacks/MMFeedbacks/Core/Legacy/MMFeedbacks.cs"
"Assets/Plugins/Feel/MMFeedbacks/MMFeedbacks/Core/Legacy/MMFeedbacksEnabler.cs"
"Assets/Plugins/Feel/MMFeedbacks/MMFeedbacks/Core/MMChannels/MMChannel.cs"
"Assets/Plugins/Feel/MMFeedbacks/MMFeedbacks/Core/MMFeedbacksCoroutine.cs"
"Assets/Plugins/Feel/MMFeedbacks/MMFeedbacks/Core/MMFeedbacksEvents.cs"
"Assets/Plugins/Feel/MMFeedbacks/MMFeedbacks/Core/MMFeedbacksHelpers.cs"
"Assets/Plugins/Feel/MMFeedbacks/MMFeedbacks/Core/MMFeedbacksInspectorColors.cs"
"Assets/Plugins/Feel/MMFeedbacks/MMFeedbacks/Core/MMFeedbackTiming.cs"
"Assets/Plugins/Feel/MMFeedbacks/MMFeedbacks/Core/MMF_Player/MMF_Feedback.cs"
"Assets/Plugins/Feel/MMFeedbacks/MMFeedbacks/Core/MMF_Player/MMF_FeedbackAttributes.cs"
"Assets/Plugins/Feel/MMFeedbacks/MMFeedbacks/Core/MMF_Player/MMF_Player.cs"
"Assets/Plugins/Feel/MMFeedbacks/MMFeedbacks/Core/MMF_Player/MMF_PlayerEnabler.cs"
"Assets/Plugins/Feel/MMFeedbacks/MMFeedbacks/Core/MMF_Player/MMF_PlayerEvents.cs"
"Assets/Plugins/Feel/MMFeedbacks/MMFeedbacks/Core/MMShaker.cs"
"Assets/Plugins/Feel/MMFeedbacks/MMFeedbacks/Core/ObjectPool/MMMiniObjectPooler.cs"
"Assets/Plugins/Feel/MMFeedbacks/MMFeedbacks/Core/ObjectPool/MMMiniPoolableObject.cs"
"Assets/Plugins/Feel/MMFeedbacks/MMFeedbacks/Feedbacks/Legacy/MMFeedbackAnimation.cs"
"Assets/Plugins/Feel/MMFeedbacks/MMFeedbacks/Feedbacks/Legacy/MMFeedbackAnimatorSpeed.cs"
"Assets/Plugins/Feel/MMFeedbacks/MMFeedbacks/Feedbacks/Legacy/MMFeedbackAudioFilterDistortion.cs"
"Assets/Plugins/Feel/MMFeedbacks/MMFeedbacks/Feedbacks/Legacy/MMFeedbackAudioFilterEcho.cs"
"Assets/Plugins/Feel/MMFeedbacks/MMFeedbacks/Feedbacks/Legacy/MMFeedbackAudioFilterHighPass.cs"
"Assets/Plugins/Feel/MMFeedbacks/MMFeedbacks/Feedbacks/Legacy/MMFeedbackAudioFilterLowPass.cs"
"Assets/Plugins/Feel/MMFeedbacks/MMFeedbacks/Feedbacks/Legacy/MMFeedbackAudioFilterReverb.cs"
"Assets/Plugins/Feel/MMFeedbacks/MMFeedbacks/Feedbacks/Legacy/MMFeedbackAudioMixerSnapshotTransition.cs"
"Assets/Plugins/Feel/MMFeedbacks/MMFeedbacks/Feedbacks/Legacy/MMFeedbackAudioSource.cs"
"Assets/Plugins/Feel/MMFeedbacks/MMFeedbacks/Feedbacks/Legacy/MMFeedbackAudioSourcePitch.cs"
"Assets/Plugins/Feel/MMFeedbacks/MMFeedbacks/Feedbacks/Legacy/MMFeedbackAudioSourceStereoPan.cs"
"Assets/Plugins/Feel/MMFeedbacks/MMFeedbacks/Feedbacks/Legacy/MMFeedbackAudioSourceVolume.cs"
"Assets/Plugins/Feel/MMFeedbacks/MMFeedbacks/Feedbacks/Legacy/MMFeedbackCameraClippingPlanes.cs"
"Assets/Plugins/Feel/MMFeedbacks/MMFeedbacks/Feedbacks/Legacy/MMFeedbackCameraFieldOfView.cs"
"Assets/Plugins/Feel/MMFeedbacks/MMFeedbacks/Feedbacks/Legacy/MMFeedbackCameraOrthographicSize.cs"
"Assets/Plugins/Feel/MMFeedbacks/MMFeedbacks/Feedbacks/Legacy/MMFeedbackCameraShake.cs"
"Assets/Plugins/Feel/MMFeedbacks/MMFeedbacks/Feedbacks/Legacy/MMFeedbackCameraZoom.cs"
"Assets/Plugins/Feel/MMFeedbacks/MMFeedbacks/Feedbacks/Legacy/MMFeedbackCanvasGroupBlocksRaycasts.cs"
"Assets/Plugins/Feel/MMFeedbacks/MMFeedbacks/Feedbacks/Legacy/MMFeedbackCollider.cs"
"Assets/Plugins/Feel/MMFeedbacks/MMFeedbacks/Feedbacks/Legacy/MMFeedbackCollider2D.cs"
"Assets/Plugins/Feel/MMFeedbacks/MMFeedbacks/Feedbacks/Legacy/MMFeedbackDestinationTransform.cs"
"Assets/Plugins/Feel/MMFeedbacks/MMFeedbacks/Feedbacks/Legacy/MMFeedbackDestroy.cs"
"Assets/Plugins/Feel/MMFeedbacks/MMFeedbacks/Feedbacks/Legacy/MMFeedbackEnable.cs"
"Assets/Plugins/Feel/MMFeedbacks/MMFeedbacks/Feedbacks/Legacy/MMFeedbackEvents.cs"
"Assets/Plugins/Feel/MMFeedbacks/MMFeedbacks/Feedbacks/Legacy/MMFeedbackFeedbacks.cs"
"Assets/Plugins/Feel/MMFeedbacks/MMFeedbacks/Feedbacks/Legacy/MMFeedbackFlash.cs"
"Assets/Plugins/Feel/MMFeedbacks/MMFeedbacks/Feedbacks/Legacy/MMFeedbackFlicker.cs"
"Assets/Plugins/Feel/MMFeedbacks/MMFeedbacks/Feedbacks/Legacy/MMFeedbackFreezeFrame.cs"
"Assets/Plugins/Feel/MMFeedbacks/MMFeedbacks/Feedbacks/Legacy/MMFeedbackHoldingPause.cs"
"Assets/Plugins/Feel/MMFeedbacks/MMFeedbacks/Feedbacks/Legacy/MMFeedbackImage.cs"
"Assets/Plugins/Feel/MMFeedbacks/MMFeedbacks/Feedbacks/Legacy/MMFeedbackImageRaycastTarget.cs"
"Assets/Plugins/Feel/MMFeedbacks/MMFeedbacks/Feedbacks/Legacy/MMFeedbackInstantiateObject.cs"
"Assets/Plugins/Feel/MMFeedbacks/MMFeedbacks/Feedbacks/Legacy/MMFeedbackLight.cs"
"Assets/Plugins/Feel/MMFeedbacks/MMFeedbacks/Feedbacks/Legacy/MMFeedbackLooper.cs"
"Assets/Plugins/Feel/MMFeedbacks/MMFeedbacks/Feedbacks/Legacy/MMFeedbackLooperStart.cs"
"Assets/Plugins/Feel/MMFeedbacks/MMFeedbacks/Feedbacks/Legacy/MMFeedbackMaterial.cs"
"Assets/Plugins/Feel/MMFeedbacks/MMFeedbacks/Feedbacks/Legacy/MMFeedbackParticles.cs"
"Assets/Plugins/Feel/MMFeedbacks/MMFeedbacks/Feedbacks/Legacy/MMFeedbackParticlesInstantiation.cs"
"Assets/Plugins/Feel/MMFeedbacks/MMFeedbacks/Feedbacks/Legacy/MMFeedbackPause.cs"
"Assets/Plugins/Feel/MMFeedbacks/MMFeedbacks/Feedbacks/Legacy/MMFeedbackPosition.cs"
"Assets/Plugins/Feel/MMFeedbacks/MMFeedbacks/Feedbacks/Legacy/MMFeedbackRigidbody.cs"
"Assets/Plugins/Feel/MMFeedbacks/MMFeedbacks/Feedbacks/Legacy/MMFeedbackRigidbody2D.cs"
"Assets/Plugins/Feel/MMFeedbacks/MMFeedbacks/Feedbacks/Legacy/MMFeedbackRotation.cs"
"Assets/Plugins/Feel/MMFeedbacks/MMFeedbacks/Feedbacks/Legacy/MMFeedbackScale.cs"
"Assets/Plugins/Feel/MMFeedbacks/MMFeedbacks/Feedbacks/Legacy/MMFeedbackSetActive.cs"
"Assets/Plugins/Feel/MMFeedbacks/MMFeedbacks/Feedbacks/Legacy/MMFeedbackShaderGlobal.cs"
"Assets/Plugins/Feel/MMFeedbacks/MMFeedbacks/Feedbacks/Legacy/MMFeedbackSkybox.cs"
"Assets/Plugins/Feel/MMFeedbacks/MMFeedbacks/Feedbacks/Legacy/MMFeedbackSpriteRenderer.cs"
"Assets/Plugins/Feel/MMFeedbacks/MMFeedbacks/Feedbacks/Legacy/MMFeedbackSquashAndStretch.cs"
"Assets/Plugins/Feel/MMFeedbacks/MMFeedbacks/Feedbacks/Legacy/MMFeedbackText.cs"
"Assets/Plugins/Feel/MMFeedbacks/MMFeedbacks/Feedbacks/Legacy/MMFeedbackTextColor.cs"
"Assets/Plugins/Feel/MMFeedbacks/MMFeedbacks/Feedbacks/Legacy/MMFeedbackTextureOffset.cs"
"Assets/Plugins/Feel/MMFeedbacks/MMFeedbacks/Feedbacks/Legacy/MMFeedbackTextureScale.cs"
"Assets/Plugins/Feel/MMFeedbacks/MMFeedbacks/Feedbacks/Legacy/MMFeedbackTimescaleModifier.cs"
"Assets/Plugins/Feel/MMFeedbacks/MMFeedbacks/Feedbacks/Legacy/MMFeedbackUnloadScene.cs"
"Assets/Plugins/Feel/MMFeedbacks/MMFeedbacks/Feedbacks/Legacy/MMFeedbackVideoPlayer.cs"
"Assets/Plugins/Feel/MMFeedbacks/MMFeedbacks/Feedbacks/Legacy/MMFeedbackWiggle.cs"
"Assets/Plugins/Feel/MMFeedbacks/MMFeedbacks/Feedbacks/MMF_Animation.cs"
"Assets/Plugins/Feel/MMFeedbacks/MMFeedbacks/Feedbacks/MMF_AnimatorSpeed.cs"
"Assets/Plugins/Feel/MMFeedbacks/MMFeedbacks/Feedbacks/MMF_AudioFilterDistortion.cs"
"Assets/Plugins/Feel/MMFeedbacks/MMFeedbacks/Feedbacks/MMF_AudioFilterEcho.cs"
"Assets/Plugins/Feel/MMFeedbacks/MMFeedbacks/Feedbacks/MMF_AudioFilterHighPass.cs"
"Assets/Plugins/Feel/MMFeedbacks/MMFeedbacks/Feedbacks/MMF_AudioFilterLowPass.cs"
"Assets/Plugins/Feel/MMFeedbacks/MMFeedbacks/Feedbacks/MMF_AudioFilterReverb.cs"
"Assets/Plugins/Feel/MMFeedbacks/MMFeedbacks/Feedbacks/MMF_AudioMixerSnapshotTransition.cs"
"Assets/Plugins/Feel/MMFeedbacks/MMFeedbacks/Feedbacks/MMF_AudioSource.cs"
"Assets/Plugins/Feel/MMFeedbacks/MMFeedbacks/Feedbacks/MMF_AudioSourcePitch.cs"
"Assets/Plugins/Feel/MMFeedbacks/MMFeedbacks/Feedbacks/MMF_AudioSourceStereoPan.cs"
"Assets/Plugins/Feel/MMFeedbacks/MMFeedbacks/Feedbacks/MMF_AudioSourceVolume.cs"
"Assets/Plugins/Feel/MMFeedbacks/MMFeedbacks/Feedbacks/MMF_CameraClippingPlanes.cs"
"Assets/Plugins/Feel/MMFeedbacks/MMFeedbacks/Feedbacks/MMF_CameraFieldOfView.cs"
"Assets/Plugins/Feel/MMFeedbacks/MMFeedbacks/Feedbacks/MMF_CameraOrthographicSize.cs"
"Assets/Plugins/Feel/MMFeedbacks/MMFeedbacks/Feedbacks/MMF_CameraShake.cs"
"Assets/Plugins/Feel/MMFeedbacks/MMFeedbacks/Feedbacks/MMF_CameraZoom.cs"
"Assets/Plugins/Feel/MMFeedbacks/MMFeedbacks/Feedbacks/MMF_CanvasGroupBlocksRaycasts.cs"
"Assets/Plugins/Feel/MMFeedbacks/MMFeedbacks/Feedbacks/MMF_Collider.cs"
"Assets/Plugins/Feel/MMFeedbacks/MMFeedbacks/Feedbacks/MMF_Collider2D.cs"
"Assets/Plugins/Feel/MMFeedbacks/MMFeedbacks/Feedbacks/MMF_DestinationTransform.cs"
"Assets/Plugins/Feel/MMFeedbacks/MMFeedbacks/Feedbacks/MMF_Destroy.cs"
"Assets/Plugins/Feel/MMFeedbacks/MMFeedbacks/Feedbacks/MMF_Enable.cs"
"Assets/Plugins/Feel/MMFeedbacks/MMFeedbacks/Feedbacks/MMF_Events.cs"
"Assets/Plugins/Feel/MMFeedbacks/MMFeedbacks/Feedbacks/MMF_Feedbacks.cs"
"Assets/Plugins/Feel/MMFeedbacks/MMFeedbacks/Feedbacks/MMF_Flash.cs"
"Assets/Plugins/Feel/MMFeedbacks/MMFeedbacks/Feedbacks/MMF_Flicker.cs"
"Assets/Plugins/Feel/MMFeedbacks/MMFeedbacks/Feedbacks/MMF_FreezeFrame.cs"
"Assets/Plugins/Feel/MMFeedbacks/MMFeedbacks/Feedbacks/MMF_Graphic.cs"
"Assets/Plugins/Feel/MMFeedbacks/MMFeedbacks/Feedbacks/MMF_GraphicCrossFade.cs"
"Assets/Plugins/Feel/MMFeedbacks/MMFeedbacks/Feedbacks/MMF_HoldingPause.cs"
"Assets/Plugins/Feel/MMFeedbacks/MMFeedbacks/Feedbacks/MMF_Image.cs"
"Assets/Plugins/Feel/MMFeedbacks/MMFeedbacks/Feedbacks/MMF_ImageRaycastTarget.cs"
"Assets/Plugins/Feel/MMFeedbacks/MMFeedbacks/Feedbacks/MMF_ImageTextureOffset.cs"
"Assets/Plugins/Feel/MMFeedbacks/MMFeedbacks/Feedbacks/MMF_ImageTextureScale.cs"
"Assets/Plugins/Feel/MMFeedbacks/MMFeedbacks/Feedbacks/MMF_InstantiateObject.cs"
"Assets/Plugins/Feel/MMFeedbacks/MMFeedbacks/Feedbacks/MMF_Light.cs"
"Assets/Plugins/Feel/MMFeedbacks/MMFeedbacks/Feedbacks/MMF_LookAt.cs"
"Assets/Plugins/Feel/MMFeedbacks/MMFeedbacks/Feedbacks/MMF_Looper.cs"
"Assets/Plugins/Feel/MMFeedbacks/MMFeedbacks/Feedbacks/MMF_LooperStart.cs"
"Assets/Plugins/Feel/MMFeedbacks/MMFeedbacks/Feedbacks/MMF_Material.cs"
"Assets/Plugins/Feel/MMFeedbacks/MMFeedbacks/Feedbacks/MMF_Particles.cs"
"Assets/Plugins/Feel/MMFeedbacks/MMFeedbacks/Feedbacks/MMF_ParticlesInstantiation.cs"
"Assets/Plugins/Feel/MMFeedbacks/MMFeedbacks/Feedbacks/MMF_Pause.cs"
"Assets/Plugins/Feel/MMFeedbacks/MMFeedbacks/Feedbacks/MMF_PlayerChain.cs"
"Assets/Plugins/Feel/MMFeedbacks/MMFeedbacks/Feedbacks/MMF_Position.cs"
"Assets/Plugins/Feel/MMFeedbacks/MMFeedbacks/Feedbacks/MMF_PositionShake.cs"
"Assets/Plugins/Feel/MMFeedbacks/MMFeedbacks/Feedbacks/MMF_Rigidbody.cs"
"Assets/Plugins/Feel/MMFeedbacks/MMFeedbacks/Feedbacks/MMF_Rigidbody2D.cs"
"Assets/Plugins/Feel/MMFeedbacks/MMFeedbacks/Feedbacks/MMF_RotatePositionAround.cs"
"Assets/Plugins/Feel/MMFeedbacks/MMFeedbacks/Feedbacks/MMF_Rotation.cs"
"Assets/Plugins/Feel/MMFeedbacks/MMFeedbacks/Feedbacks/MMF_RotationShake.cs"
"Assets/Plugins/Feel/MMFeedbacks/MMFeedbacks/Feedbacks/MMF_Scale.cs"
"Assets/Plugins/Feel/MMFeedbacks/MMFeedbacks/Feedbacks/MMF_ScaleShake.cs"
"Assets/Plugins/Feel/MMFeedbacks/MMFeedbacks/Feedbacks/MMF_SetActive.cs"
"Assets/Plugins/Feel/MMFeedbacks/MMFeedbacks/Feedbacks/MMF_ShaderGlobal.cs"
"Assets/Plugins/Feel/MMFeedbacks/MMFeedbacks/Feedbacks/MMF_Skybox.cs"
"Assets/Plugins/Feel/MMFeedbacks/MMFeedbacks/Feedbacks/MMF_SpriteRenderer.cs"
"Assets/Plugins/Feel/MMFeedbacks/MMFeedbacks/Feedbacks/MMF_SquashAndStretch.cs"
"Assets/Plugins/Feel/MMFeedbacks/MMFeedbacks/Feedbacks/MMF_Text.cs"
"Assets/Plugins/Feel/MMFeedbacks/MMFeedbacks/Feedbacks/MMF_TextColor.cs"
"Assets/Plugins/Feel/MMFeedbacks/MMFeedbacks/Feedbacks/MMF_TextureOffset.cs"
"Assets/Plugins/Feel/MMFeedbacks/MMFeedbacks/Feedbacks/MMF_TextureScale.cs"
"Assets/Plugins/Feel/MMFeedbacks/MMFeedbacks/Feedbacks/MMF_TimescaleModifier.cs"
"Assets/Plugins/Feel/MMFeedbacks/MMFeedbacks/Feedbacks/MMF_UnloadScene.cs"
"Assets/Plugins/Feel/MMFeedbacks/MMFeedbacks/Feedbacks/MMF_VideoPlayer.cs"
"Assets/Plugins/Feel/MMFeedbacks/MMFeedbacks/Feedbacks/MMF_Wiggle.cs"
"Assets/Plugins/Feel/MMFeedbacks/MMFeedbacks/MMFloatingText/MMFloatingText.cs"
"Assets/Plugins/Feel/MMFeedbacks/MMFeedbacks/MMFloatingText/MMFloatingTextSpawner.cs"
"Assets/Plugins/Feel/MMFeedbacks/MMFeedbacks/Sequencing/Scripts/MMAudioSourceSequencer.cs"
"Assets/Plugins/Feel/MMFeedbacks/MMFeedbacks/Sequencing/Scripts/MMFeedbacksSequencer.cs"
"Assets/Plugins/Feel/MMFeedbacks/MMFeedbacks/Sequencing/Scripts/MMInputSequenceRecorder.cs"
"Assets/Plugins/Feel/MMFeedbacks/MMFeedbacks/Sequencing/Scripts/MMSequence.cs"
"Assets/Plugins/Feel/MMFeedbacks/MMFeedbacks/Sequencing/Scripts/MMSequencer.cs"
"Assets/Plugins/Feel/MMFeedbacks/MMFeedbacks/Sequencing/Scripts/MMSoundSequencer.cs"
"Assets/Plugins/Feel/MMFeedbacks/MMFeedbacks/Shakers/MMAudioFilterDistortionShaker.cs"
"Assets/Plugins/Feel/MMFeedbacks/MMFeedbacks/Shakers/MMAudioFilterEchoShaker.cs"
"Assets/Plugins/Feel/MMFeedbacks/MMFeedbacks/Shakers/MMAudioFilterHighPassShaker.cs"
"Assets/Plugins/Feel/MMFeedbacks/MMFeedbacks/Shakers/MMAudioFilterLowPassShaker.cs"
"Assets/Plugins/Feel/MMFeedbacks/MMFeedbacks/Shakers/MMAudioFilterReverbShaker.cs"
"Assets/Plugins/Feel/MMFeedbacks/MMFeedbacks/Shakers/MMAudioSourcePitchShaker.cs"
"Assets/Plugins/Feel/MMFeedbacks/MMFeedbacks/Shakers/MMAudioSourceStereoPanShaker.cs"
"Assets/Plugins/Feel/MMFeedbacks/MMFeedbacks/Shakers/MMAudioSourceVolumeShaker.cs"
"Assets/Plugins/Feel/MMFeedbacks/MMFeedbacks/Shakers/MMBlink.cs"
"Assets/Plugins/Feel/MMFeedbacks/MMFeedbacks/Shakers/MMCameraClippingPlanesShaker.cs"
"Assets/Plugins/Feel/MMFeedbacks/MMFeedbacks/Shakers/MMCameraFieldOfViewShaker.cs"
"Assets/Plugins/Feel/MMFeedbacks/MMFeedbacks/Shakers/MMCameraOrthographicSizeShaker.cs"
"Assets/Plugins/Feel/MMFeedbacks/MMFeedbacks/Shakers/MMCameraShaker.cs"
"Assets/Plugins/Feel/MMFeedbacks/MMFeedbacks/Shakers/MMCameraShakerRotation.cs"
"Assets/Plugins/Feel/MMFeedbacks/MMFeedbacks/Shakers/MMCameraZoom.cs"
"Assets/Plugins/Feel/MMFeedbacks/MMFeedbacks/Shakers/MMFeedbacksShaker.cs"
"Assets/Plugins/Feel/MMFeedbacks/MMFeedbacks/Shakers/MMFlash.cs"
"Assets/Plugins/Feel/MMFeedbacks/MMFeedbacks/Shakers/MMLightShaker.cs"
"Assets/Plugins/Feel/MMFeedbacks/MMFeedbacks/Shakers/MMLookAtShaker.cs"
"Assets/Plugins/Feel/MMFeedbacks/MMFeedbacks/Shakers/MMPositionShaker.cs"
"Assets/Plugins/Feel/MMFeedbacks/MMFeedbacks/Shakers/MMRotationShaker.cs"
"Assets/Plugins/Feel/MMFeedbacks/MMFeedbacks/Shakers/MMScaleShaker.cs"
"Assets/Plugins/Feel/MMFeedbacks/MMFeedbacks/Shakers/MMSpriteRendererShaker.cs"
"Assets/Plugins/Feel/MMFeedbacks/MMFeedbacks/Shakers/MMTimeManager.cs"
"Assets/Plugins/Feel/MMFeedbacks/MMFeedbacks/Shakers/MMWiggle.cs"
-langversion:9.0

/deterministic
/optimize+
/debug:portable
/nologo
/RuntimeMetadataVersion:v4.0.30319

/nowarn:0169
/nowarn:0649
/nowarn:1701
/nowarn:1702
/utf8output
/preferreduilang:en-US


/additionalfile:"Library/Bee/artifacts/1900b0aE.dag/MoreMountains.Feedbacks.AdditionalFile.txt"