Library\Bee\artifacts\mvdfrm\Unity.2D.Animation.Editor.ref.dll_A13BD6459BB26E0B.mvfrm
Library\Bee\artifacts\mvdfrm\Unity.2D.Animation.Runtime.ref.dll_6747672A37E369F0.mvfrm
Library\Bee\artifacts\mvdfrm\Unity.2D.Common.Editor.ref.dll_BD59A5CBF9D52B22.mvfrm
Library\Bee\artifacts\mvdfrm\Unity.2D.Sprite.Editor.ref.dll_DDBAA27A82CE9E28.mvfrm
Library\Bee\artifacts\mvdfrm\Unity.Burst.ref.dll_F30DFA20C0DD1968.mvfrm
Library\Bee\artifacts\mvdfrm\Unity.InternalAPIEditorBridge.001.ref.dll_C275F416F58A86FE.mvfrm
Library\Bee\artifacts\mvdfrm\Unity.InternalAPIEngineBridge.001.ref.dll_B4F0ACC15A996E43.mvfrm
Library\Bee\artifacts\mvdfrm\Unity.Mathematics.ref.dll_E8EFDB1B8D5C174E.mvfrm
Library\Bee\artifacts\mvdfrm\UnityEditor.TestRunner.ref.dll_193EC4CE382CBFB3.mvfrm
Library\Bee\artifacts\mvdfrm\UnityEditor.UI.ref.dll_4C98D3F7040CD4F5.mvfrm
Library\Bee\artifacts\mvdfrm\UnityEngine.TestRunner.ref.dll_E55D0F7C63F01D9E.mvfrm
Library\Bee\artifacts\mvdfrm\UnityEngine.UI.ref.dll_08FEAA520A2EFD60.mvfrm
Library\Bee\artifacts\mvdfrm\Unity.Burst.Cecil.dll_D1DB520DA87BE73F.mvfrm
Library\Bee\artifacts\mvdfrm\Unity.Burst.Cecil.Mdb.dll_3873C9F445F5823C.mvfrm
Library\Bee\artifacts\mvdfrm\Unity.Burst.Cecil.Pdb.dll_4FC64263C4AA83BF.mvfrm
Library\Bee\artifacts\mvdfrm\Unity.Burst.Cecil.Rocks.dll_2886006292B181BF.mvfrm
Library\Bee\artifacts\mvdfrm\Unity.Burst.Unsafe.dll_5C07774D80B54EA4.mvfrm
Library\Bee\artifacts\mvdfrm\Unity.Plastic.Antlr3.Runtime.dll_F5E5EFA0218FBD5F.mvfrm
Library\Bee\artifacts\mvdfrm\Unity.Plastic.Newtonsoft.Json.dll_8F0DFF8B59184E66.mvfrm
Library\Bee\artifacts\mvdfrm\Unity.VisualScripting.IonicZip.dll_52003CB63FC465B8.mvfrm
Library\Bee\artifacts\mvdfrm\Unity.VisualScripting.YamlDotNet.dll_D6C0C8297C899C44.mvfrm
Library\Bee\artifacts\mvdfrm\Unity.VisualScripting.TextureAssets.dll_6DDEF17D3D56FA3C.mvfrm
Library\Bee\artifacts\mvdfrm\Unity.VisualScripting.Antlr3.Runtime.dll_882DEF0AAD52AC63.mvfrm
Library\Bee\artifacts\mvdfrm\UnityEditor.Graphs.dll_3A79F4D70B2BFE71.mvfrm
Library\Bee\artifacts\mvdfrm\UnityEditor.CoreModule.dll_25032FA3C127733F.mvfrm
Library\Bee\artifacts\mvdfrm\UnityEditor.DeviceSimulatorModule.dll_5FA9F989BB5857B2.mvfrm
Library\Bee\artifacts\mvdfrm\UnityEditor.DiagnosticsModule.dll_E5F41A4A82284D80.mvfrm
Library\Bee\artifacts\mvdfrm\UnityEditor.dll_BBC9519A630C3226.mvfrm
Library\Bee\artifacts\mvdfrm\UnityEditor.GraphViewModule.dll_227AD95A0D78C157.mvfrm
Library\Bee\artifacts\mvdfrm\UnityEditor.PackageManagerUIModule.dll_632E196C1D3877DB.mvfrm
Library\Bee\artifacts\mvdfrm\UnityEditor.QuickSearchModule.dll_71039B57DAFF49D9.mvfrm
Library\Bee\artifacts\mvdfrm\UnityEditor.SceneTemplateModule.dll_6A7D73A770DC2D7A.mvfrm
Library\Bee\artifacts\mvdfrm\UnityEditor.TextCoreFontEngineModule.dll_A611C1949CD671DD.mvfrm
Library\Bee\artifacts\mvdfrm\UnityEditor.TextCoreTextEngineModule.dll_EDF9F8062C5A2AFB.mvfrm
Library\Bee\artifacts\mvdfrm\UnityEditor.UIBuilderModule.dll_7703867680313A8B.mvfrm
Library\Bee\artifacts\mvdfrm\UnityEditor.UIElementsModule.dll_50F8EFF863B7001B.mvfrm
Library\Bee\artifacts\mvdfrm\UnityEditor.UIElementsSamplesModule.dll_912B28E672FC3C02.mvfrm
Library\Bee\artifacts\mvdfrm\UnityEditor.UIServiceModule.dll_AFF597D969688AA5.mvfrm
Library\Bee\artifacts\mvdfrm\UnityEditor.UnityConnectModule.dll_EE6238FF27FEC175.mvfrm
Library\Bee\artifacts\mvdfrm\UnityEngine.AccessibilityModule.dll_9D22DF3E71525517.mvfrm
Library\Bee\artifacts\mvdfrm\UnityEngine.AIModule.dll_6535A15E9C0ACFB3.mvfrm
Library\Bee\artifacts\mvdfrm\UnityEngine.AndroidJNIModule.dll_CF41D8CBACD66EF1.mvfrm
Library\Bee\artifacts\mvdfrm\UnityEngine.AnimationModule.dll_F1005582E7D595FD.mvfrm
Library\Bee\artifacts\mvdfrm\UnityEngine.ARModule.dll_1EA86661F9282E7C.mvfrm
Library\Bee\artifacts\mvdfrm\UnityEngine.AssetBundleModule.dll_B4ECCE493D65FECB.mvfrm
Library\Bee\artifacts\mvdfrm\UnityEngine.AudioModule.dll_9E810F84B671AFAF.mvfrm
Library\Bee\artifacts\mvdfrm\UnityEngine.ClothModule.dll_05696C7F908E8E93.mvfrm
Library\Bee\artifacts\mvdfrm\UnityEngine.ClusterInputModule.dll_6DFEAE14D986943B.mvfrm
Library\Bee\artifacts\mvdfrm\UnityEngine.ClusterRendererModule.dll_6556BBFB2B136536.mvfrm
Library\Bee\artifacts\mvdfrm\UnityEngine.CoreModule.dll_482402F6692CDE6A.mvfrm
Library\Bee\artifacts\mvdfrm\UnityEngine.CrashReportingModule.dll_8C3495AD9B599842.mvfrm
Library\Bee\artifacts\mvdfrm\UnityEngine.DirectorModule.dll_34E9B077F98A7707.mvfrm
Library\Bee\artifacts\mvdfrm\UnityEngine.dll_EE6D9872C17FBF0B.mvfrm
Library\Bee\artifacts\mvdfrm\UnityEngine.DSPGraphModule.dll_3A3B11E16BEB4828.mvfrm
Library\Bee\artifacts\mvdfrm\UnityEngine.GameCenterModule.dll_F98F22E673175FE2.mvfrm
Library\Bee\artifacts\mvdfrm\UnityEngine.GIModule.dll_FD71EA6C37B9B7CD.mvfrm
Library\Bee\artifacts\mvdfrm\UnityEngine.GridModule.dll_25951EE481817461.mvfrm
Library\Bee\artifacts\mvdfrm\UnityEngine.HotReloadModule.dll_72491388C308B17F.mvfrm
Library\Bee\artifacts\mvdfrm\UnityEngine.ImageConversionModule.dll_D148B9ABAD381D2A.mvfrm
Library\Bee\artifacts\mvdfrm\UnityEngine.IMGUIModule.dll_D6E0AEEB7CA34390.mvfrm
Library\Bee\artifacts\mvdfrm\UnityEngine.InputLegacyModule.dll_4631E967D557B4BC.mvfrm
Library\Bee\artifacts\mvdfrm\UnityEngine.InputModule.dll_04F6D7352CA9D453.mvfrm
Library\Bee\artifacts\mvdfrm\UnityEngine.JSONSerializeModule.dll_FD3A687A708DB5A1.mvfrm
Library\Bee\artifacts\mvdfrm\UnityEngine.LocalizationModule.dll_AC4B786771028734.mvfrm
Library\Bee\artifacts\mvdfrm\UnityEngine.NVIDIAModule.dll_374F660653706416.mvfrm
Library\Bee\artifacts\mvdfrm\UnityEngine.ParticleSystemModule.dll_DF46DEFA096B23D0.mvfrm
Library\Bee\artifacts\mvdfrm\UnityEngine.PerformanceReportingModule.dll_BD30C00DF0C95D29.mvfrm
Library\Bee\artifacts\mvdfrm\UnityEngine.Physics2DModule.dll_3DA6457388D28D92.mvfrm
Library\Bee\artifacts\mvdfrm\UnityEngine.PhysicsModule.dll_363D5C93ADDFB660.mvfrm
Library\Bee\artifacts\mvdfrm\UnityEngine.ProfilerModule.dll_672FE9AE92E3FE14.mvfrm
Library\Bee\artifacts\mvdfrm\UnityEngine.RuntimeInitializeOnLoadManagerInitializerModule.dll_FAF808475196225B.mvfrm
Library\Bee\artifacts\mvdfrm\UnityEngine.ScreenCaptureModule.dll_172215FF84F9E203.mvfrm
Library\Bee\artifacts\mvdfrm\UnityEngine.SharedInternalsModule.dll_5559F8812466187A.mvfrm
Library\Bee\artifacts\mvdfrm\UnityEngine.SpriteMaskModule.dll_E2BB95769486F55C.mvfrm
Library\Bee\artifacts\mvdfrm\UnityEngine.SpriteShapeModule.dll_CE4DFBA3F30836D5.mvfrm
Library\Bee\artifacts\mvdfrm\UnityEngine.StreamingModule.dll_A59542D3375D4D3B.mvfrm
Library\Bee\artifacts\mvdfrm\UnityEngine.SubstanceModule.dll_8240571C82B04B49.mvfrm
Library\Bee\artifacts\mvdfrm\UnityEngine.SubsystemsModule.dll_4D68FBD862CEDD6F.mvfrm
Library\Bee\artifacts\mvdfrm\UnityEngine.TerrainModule.dll_5083D802839DFF4E.mvfrm
Library\Bee\artifacts\mvdfrm\UnityEngine.TerrainPhysicsModule.dll_DFC187CD22AE1E5D.mvfrm
Library\Bee\artifacts\mvdfrm\UnityEngine.TextCoreFontEngineModule.dll_24713CE7AFD430A8.mvfrm
Library\Bee\artifacts\mvdfrm\UnityEngine.TextCoreTextEngineModule.dll_6C5973593F57E9C6.mvfrm
Library\Bee\artifacts\mvdfrm\UnityEngine.TextRenderingModule.dll_4061880A3C3161F8.mvfrm
Library\Bee\artifacts\mvdfrm\UnityEngine.TilemapModule.dll_EF803F839B5AE057.mvfrm
Library\Bee\artifacts\mvdfrm\UnityEngine.TLSModule.dll_2B2C758D73F56F34.mvfrm
Library\Bee\artifacts\mvdfrm\UnityEngine.UIElementsModule.dll_51A75D4065FB1966.mvfrm
Library\Bee\artifacts\mvdfrm\UnityEngine.UIElementsNativeModule.dll_ADA7CE018EB0E7FD.mvfrm
Library\Bee\artifacts\mvdfrm\UnityEngine.UIModule.dll_60A93F8BF851D55F.mvfrm
Library\Bee\artifacts\mvdfrm\UnityEngine.UmbraModule.dll_1955BB9D43985B22.mvfrm
Library\Bee\artifacts\mvdfrm\UnityEngine.UNETModule.dll_DACA4ADFB63BD3E3.mvfrm
Library\Bee\artifacts\mvdfrm\UnityEngine.UnityAnalyticsCommonModule.dll_586F7D520AB1FB87.mvfrm
Library\Bee\artifacts\mvdfrm\UnityEngine.UnityAnalyticsModule.dll_FEE64FC3B59275CC.mvfrm
Library\Bee\artifacts\mvdfrm\UnityEngine.UnityConnectModule.dll_DBC1BD0E2286C220.mvfrm
Library\Bee\artifacts\mvdfrm\UnityEngine.UnityCurlModule.dll_241CF6B457E987EA.mvfrm
Library\Bee\artifacts\mvdfrm\UnityEngine.UnityTestProtocolModule.dll_4CEDDED8CCF79158.mvfrm
Library\Bee\artifacts\mvdfrm\UnityEngine.UnityWebRequestAssetBundleModule.dll_76D903C559E6119D.mvfrm
Library\Bee\artifacts\mvdfrm\UnityEngine.UnityWebRequestAudioModule.dll_352D13EC773427C1.mvfrm
Library\Bee\artifacts\mvdfrm\UnityEngine.UnityWebRequestModule.dll_E2E7C155B82CB7A9.mvfrm
Library\Bee\artifacts\mvdfrm\UnityEngine.UnityWebRequestTextureModule.dll_C22C94BD7A46AFB6.mvfrm
Library\Bee\artifacts\mvdfrm\UnityEngine.UnityWebRequestWWWModule.dll_371BB8B52F17A632.mvfrm
Library\Bee\artifacts\mvdfrm\UnityEngine.VehiclesModule.dll_ACACA9F773B446A2.mvfrm
Library\Bee\artifacts\mvdfrm\UnityEngine.VFXModule.dll_AC0B0DFC4A62D8A1.mvfrm
Library\Bee\artifacts\mvdfrm\UnityEngine.VideoModule.dll_C38A93EF7903CB54.mvfrm
Library\Bee\artifacts\mvdfrm\UnityEngine.VirtualTexturingModule.dll_D2348270675F6888.mvfrm
Library\Bee\artifacts\mvdfrm\UnityEngine.VRModule.dll_B37B66119A0C5AD7.mvfrm
Library\Bee\artifacts\mvdfrm\UnityEngine.WindModule.dll_BE72DE1EFA635CD3.mvfrm
Library\Bee\artifacts\mvdfrm\UnityEngine.XRModule.dll_E63A29162346A835.mvfrm
Library\Bee\artifacts\mvdfrm\Unity.Android.Gradle.dll_83BF76D730EA5CA7.mvfrm
Library\Bee\artifacts\mvdfrm\Unity.Android.Types.dll_DFA7A6C52D3B6285.mvfrm
Library\Bee\artifacts\mvdfrm\UnityEditor.Android.Extensions.dll_ECA0874D75F2F747.mvfrm
Library\Bee\artifacts\mvdfrm\UnityEditor.iOS.Extensions.Common.dll_BFF380F9031681A4.mvfrm
Library\Bee\artifacts\mvdfrm\UnityEditor.iOS.Extensions.dll_516195CA5B71BEC1.mvfrm
Library\Bee\artifacts\mvdfrm\UnityEditor.iOS.Extensions.Xcode.dll_73EE9890436D11E8.mvfrm
Library\Bee\artifacts\mvdfrm\UnityEditor.WebGL.Extensions.dll_E9A08FFECE30BCE1.mvfrm
Library\Bee\artifacts\mvdfrm\UnityEditor.WindowsStandalone.Extensions.dll_F0C6452F6501F951.mvfrm